<File>:
/Users/nathalianascimento/Documents/NetbeansProjects/StreetLightSimulation/images/neighborhood.jpg
<Points>: 18
18;182
100;217
192;220
208;169
275;217
413;177
481;123
428;235
490;262
396;309
452;346
287;383
197;340
325;281
250;299
191;305
116;309
16;310
<Lanes>: 34
0;1
1;0
1;2
2;1
2;3
3;2
2;4
4;2
4;7
7;4
7;5
5;7
7;8
8;7
5;6
6;5
7;9
9;7
9;10
10;9
9;13
13;9
9;14
14;9
14;15
15;14
15;16
16;15
16;17
17;16
15;12
12;15
12;11
11;12
<DeparturePoints>: 4
8
0
17
10
<TargetPoints>:4
6
7
11
13
-<end>-

